{
    "data": [
        {
            "name": "power-my-biz",
            "description": "This is an AI agent Inbound testing agent.",
            "id": "f2ad20ce-3b2b-43b2-b871-fc61923c1fad",
            "tag": "ac66bd4a-69ef-45eb-9b30-6f46e03b0ee6",
            "createdAt": "2025-12-17T11:24:15.343Z",
            "status": "available",
            "lastUpdatedAt": "2025-12-17T11:35:49.514Z"
        },
        {
            "name": "harshal-server",
            "description": "This is an AI agent outbound testing agent.",
            "id": "9c765ba2-ad5b-42f2-adfb-72cd5c7af54c",
            "tag": "af553dde-0613-48e2-81ae-95e0037f5c55",
            "createdAt": "2025-12-17T07:09:27.442Z",
            "status": "available",
            "lastUsedAt": "2025-12-17T07:22:15.693Z",
            "lastUpdatedAt": "2025-12-17T07:30:14.224Z"
        },
        {
            "name": "Nodecode Agent",
            "description": "A nocode agent that can be used to create videoSDK rooms and agents",
            "id": "52a0b484-7798-4b8f-80a3-cc48a9c450c4",
            "tag": "cc3b6b7a-a276-4f57-ad85-2a18108dd545",
            "createdAt": "2025-09-07T22:39:14.957Z",
            "status": "available",
            "lastUsedAt": "2025-09-24T06:10:50.833Z",
            "lastUpdatedAt": "2025-09-24T06:10:50.834Z"
        },
        {
            "name": "VideoSDK Nocode Agent",
            "description": "A nocode agent that can be used to create videoSDK rooms and agents",
            "id": "683d63ad-e466-4e41-b0ae-cc3bb64574e3",
            "tag": "1f26168d-e122-4619-bcfa-68f38b0b29a0",
            "createdAt": "2025-09-06T13:18:02.523Z",
            "status": "available",
            "lastUsedAt": "2025-09-08T02:09:55.562Z",
            "lastUpdatedAt": "2025-12-10T10:58:52.004Z"
        },
        {
            "name": "VideoSDK Nocode Agent",
            "description": "A nocode agent that can be used to create videoSDK rooms and agents",
            "id": "683d63ad-e466-4e41-b0ae-cc3bb64574e3",
            "tag": "8200c9f1-4538-4193-a16f-b602d34be54f",
            "createdAt": "2025-09-07T13:57:26.280Z",
            "status": "unavailable",
            "lastUsedAt": "2025-09-08T02:09:55.562Z",
            "lastUpdatedAt": "2025-12-10T10:58:52.004Z"
        },
        {
            "name": "VideoSDK Nocode Agent",
            "description": "A nocode agent that can be used to create videoSDK rooms and agents",
            "id": "683d63ad-e466-4e41-b0ae-cc3bb64574e3",
            "tag": "2cb53544-2520-4668-bb24-2d79a421fdd7",
            "createdAt": "2025-09-07T13:55:37.275Z",
            "status": "unavailable",
            "lastUsedAt": "2025-09-08T02:09:55.562Z",
            "lastUpdatedAt": "2025-12-10T10:58:52.004Z"
        },
        {
            "name": "VideoSDK Nocode Agent",
            "description": "A nocode agent that can be used to create videoSDK rooms and agents",
            "id": "683d63ad-e466-4e41-b0ae-cc3bb64574e3",
            "tag": "0f8d6ea0-3a08-4167-92b0-73c928235fcb",
            "createdAt": "2025-09-07T15:12:34.807Z",
            "status": "available",
            "lastUsedAt": "2025-09-08T02:09:55.562Z",
            "lastUpdatedAt": "2025-12-10T10:58:52.004Z"
        },
        {
            "name": "VideoSDK Nocode Agent",
            "description": "A nocode agent that can be used to create videoSDK rooms and agents",
            "id": "683d63ad-e466-4e41-b0ae-cc3bb64574e3",
            "tag": "ec632bb2-b121-46f6-b196-937bafafab02",
            "createdAt": "2025-09-07T13:07:16.934Z",
            "status": "unavailable",
            "lastUsedAt": "2025-09-08T02:09:55.562Z",
            "lastUpdatedAt": "2025-12-10T10:58:52.004Z"
        },
        {
            "name": "VideoSDK Nocode Agent",
            "description": "A nocode agent that can be used to create videoSDK rooms and agents",
            "id": "683d63ad-e466-4e41-b0ae-cc3bb64574e3",
            "tag": "106e2b01-f880-4639-b9a5-deed1fe8a70a",
            "createdAt": "2025-09-07T13:22:42.318Z",
            "status": "unavailable",
            "lastUsedAt": "2025-09-08T02:09:55.562Z",
            "lastUpdatedAt": "2025-12-10T10:58:52.004Z"
        },
        {
            "name": "VideoSDK Nocode Agent",
            "description": "A nocode agent that can be used to create videoSDK rooms and agents",
            "id": "683d63ad-e466-4e41-b0ae-cc3bb64574e3",
            "tag": "260f9233-6b2a-41c2-a741-30d8d4a37bce",
            "createdAt": "2025-09-07T05:56:02.755Z",
            "status": "unavailable",
            "lastUsedAt": "2025-09-08T02:09:55.562Z",
            "lastUpdatedAt": "2025-12-10T10:58:52.004Z"
        },
        {
            "name": "VideoSDK Nocode Agent",
            "description": "A nocode agent that can be used to create videoSDK rooms and agents",
            "id": "683d63ad-e466-4e41-b0ae-cc3bb64574e3",
            "tag": "5eebf83f-11cc-494e-8fea-0ba2d975bbac",
            "createdAt": "2025-09-07T07:42:32.992Z",
            "status": "unavailable",
            "lastUsedAt": "2025-09-08T02:09:55.562Z",
            "lastUpdatedAt": "2025-12-10T10:58:52.004Z"
        },
        {
            "name": "VideoSDK Nocode Agent",
            "description": "A nocode agent that can be used to create videoSDK rooms and agents",
            "id": "683d63ad-e466-4e41-b0ae-cc3bb64574e3",
            "tag": "7d35cb17-ee5d-4158-abcb-5fae3c571da4",
            "createdAt": "2025-09-07T14:05:23.691Z",
            "status": "unavailable",
            "lastUsedAt": "2025-09-08T02:09:55.562Z",
            "lastUpdatedAt": "2025-12-10T10:58:52.004Z"
        },
        {
            "name": "VideoSDK Nocode Agent",
            "description": "A nocode agent that can be used to create videoSDK rooms and agents",
            "id": "683d63ad-e466-4e41-b0ae-cc3bb64574e3",
            "tag": "403b24a8-ecb9-45fe-a04b-f2ddce4e1a64",
            "createdAt": "2025-09-07T14:27:27.274Z",
            "status": "unavailable",
            "lastUsedAt": "2025-09-08T02:09:55.562Z",
            "lastUpdatedAt": "2025-12-10T10:58:52.004Z"
        },
        {
            "name": "VideoSDK Nocode Agent",
            "description": "A nocode agent that can be used to create videoSDK rooms and agents",
            "id": "683d63ad-e466-4e41-b0ae-cc3bb64574e3",
            "tag": "967cc6f9-9b6b-4976-ae89-ee0191ec469a",
            "createdAt": "2025-09-07T13:31:46.094Z",
            "status": "unavailable",
            "lastUsedAt": "2025-09-08T02:09:55.562Z",
            "lastUpdatedAt": "2025-12-10T10:58:52.004Z"
        },
        {
            "name": "VideoSDK Nocode Agent",
            "description": "A nocode agent that can be used to create videoSDK rooms and agents",
            "id": "683d63ad-e466-4e41-b0ae-cc3bb64574e3",
            "tag": "7a978d0f-04d4-49cd-9dba-5f43e78dd992",
            "createdAt": "2025-09-07T15:08:47.656Z",
            "status": "unavailable",
            "lastUsedAt": "2025-09-08T02:09:55.562Z",
            "lastUpdatedAt": "2025-12-10T10:58:52.004Z"
        },
        {
            "name": "VideoSDK Nocode Agent",
            "description": "A nocode agent that can be used to create videoSDK rooms and agents",
            "id": "683d63ad-e466-4e41-b0ae-cc3bb64574e3",
            "tag": "5afaf49b-66a9-4071-a9d2-b432207ac530",
            "createdAt": "2025-09-07T08:38:58.037Z",
            "status": "available",
            "lastUsedAt": "2025-09-08T02:09:55.562Z",
            "lastUpdatedAt": "2025-12-10T10:58:52.004Z"
        },
        {
            "name": "VideoSDK Nocode Agent",
            "description": "A nocode agent that can be used to create videoSDK rooms and agents",
            "id": "683d63ad-e466-4e41-b0ae-cc3bb64574e3",
            "tag": "84f94b8e-1a06-4801-b3a1-92b7b254918e",
            "createdAt": "2025-09-07T06:23:45.102Z",
            "status": "available",
            "lastUsedAt": "2025-09-08T02:09:55.562Z",
            "lastUpdatedAt": "2025-12-10T10:58:52.004Z"
        },
        {
            "name": "VideoSDK Nocode Agent",
            "description": "A nocode agent that can be used to create videoSDK rooms and agents",
            "id": "683d63ad-e466-4e41-b0ae-cc3bb64574e3",
            "tag": "17beaa5c-295d-4fed-abe0-de3e5a7e85c0",
            "createdAt": "2025-09-07T06:16:04.029Z",
            "status": "unavailable",
            "lastUsedAt": "2025-09-08T02:09:55.562Z",
            "lastUpdatedAt": "2025-12-10T10:58:52.004Z"
        },
        {
            "name": "VideoSDK Nocode Agent",
            "description": "A nocode agent that can be used to create videoSDK rooms and agents",
            "id": "683d63ad-e466-4e41-b0ae-cc3bb64574e3",
            "tag": "d61d5b09-15e7-413b-8756-34c3d2899e5c",
            "createdAt": "2025-09-07T20:49:51.796Z",
            "status": "unavailable",
            "lastUsedAt": "2025-09-08T02:09:55.562Z",
            "lastUpdatedAt": "2025-12-10T10:58:52.004Z"
        },
        {
            "name": "VideoSDK Nocode Agent",
            "description": "A nocode agent that can be used to create videoSDK rooms and agents",
            "id": "683d63ad-e466-4e41-b0ae-cc3bb64574e3",
            "tag": "4c10234d-b7fb-4969-bfa0-435b3c33fec8",
            "createdAt": "2025-09-07T09:16:08.471Z",
            "status": "unavailable",
            "lastUsedAt": "2025-09-08T02:09:55.562Z",
            "lastUpdatedAt": "2025-12-10T10:58:52.004Z"
        }
    ],
    "pageInfo": {
        "currentPage": 1,
        "perPage": 20,
        "lastPage": 4,
        "total": 70
    }
}